{
	"__ver": "dbui2:4|sysdev:3",
	"_id": "3GnbsuReQqWL0cVcRqalEg",
	"doc": "Used by package build UI to mark UpdateLog objects for exclusion from package build",
	"path": "/pkg/deactivateUpdateLogs",
	"rolespec": [
	]
}