{
	"__ver": "sysdev:3",
	"_id": "uOXAlFtkTqmdZGWFp86BWg",
	"doc": "@param version\n@param inc - one of major, premajor, minor, preminor, patch, prepatch, or prerelease",
	"path": "/sys/util/semver",
	"rolespec": [
	]
}