{
	"__ver": "sys:5",
	"_id": "bVVAikiXTvmoR21drqThLQ",
	"doc": "export a JSON file for a businessObject or set of businessObjects\ncalled from a UI action",
	"path": "/sys/businessObjectExport",
	"rolespec": [
		"FnQ_eBYITOSC8kJA4Zul5g"
	]
}