{
	"__ver": "sys:3",
	"_id": "Y205B8BWTuG_GLCTTRtLJQ",
	"doc": "POST a noonianExport.json file to import its contents into the noonian instance\nTODO: loads full export into memory",
	"path": "/sys/businessObjectImport",
	"rolespec": [
		"FnQ_eBYITOSC8kJA4Zul5g"
	]
}