{
	"__ver": "sys:3|sysdev:1",
	"_id": "M_T8-yHuSC-b4WXHp3K3OQ",
	"applies_to": "server",
	"business_object": {
		"_disp": "CssResource",
		"_id": "_7EZRGUeRYaiyU-YSZonhQ",
		"system": true
	},
	"is_static": false,
	"name": "serveContent",
	"use_injection": false
}