{
	"__ver": "sys:6|sysdev:1",
	"_id": "bcle51paSiSQ9WaJ1uBxRQ",
	"applies_to": "server",
	"business_object": {
		"_disp": "JsResource",
		"_id": "8q-MORjBS3qC0Dwh6dTIkw",
		"system": true
	},
	"is_static": false,
	"name": "serveContent",
	"use_injection": false
}