{
	"__ver": "sysdev:7",
	"_id": "wdtq3CgWSimL0I3ohK8zBA",
	"applies_to": "server",
	"business_object": {
		"_disp": "RemotePackageRepository",
		"_id": "2jfKy7M9Q6-QIOGOOwrf-Q",
		"system": true
	},
	"doc": "Calls getMetaData on remote repository.",
	"is_static": false,
	"name": "getMetaData",
	"use_injection": true
}