{
	"__ver": "sys:2",
	"_id": "fz7jb19XR5K4aclPQdkjIw",
	"abstract": false,
	"class_name": "Config",
	"definition": {
		"allow_customize": {
			"type": "boolean"
		},
		"doc": {
			"type": "jsdoc"
		},
		"key": {
			"seperator": ".",
			"type": "path"
		},
		"rolespec": {
			"type": "rolespec"
		},
		"system": {
			"type": "boolean"
		},
		"user": {
			"ref_class": "User",
			"type": "reference"
		},
		"value": {
			"type": "object"
		}
	},
	"doc": "A configuration value, keyed by a dotted path.  Value can be an arbitrary JSON object, and the \"user\" field allows user-specific customization if desired.\n @property {boolean} allow_customize \n @property {jsdoc} doc \n @property {path} key \n @property {rolespec} rolespec \n @property {boolean} system \n @property {reference.<User>} user \n @property {object} value \n",
	"system": true
}