{
	"__ver": "sys:5",
	"_id": "w1FEKYa4SbiVPVqAtEWJyw",
	"abstract": false,
	"class_name": "DataTrigger",
	"definition": {
		"action": {
			"applicable": "serverside",
			"type": "function"
		},
		"before_after": {
			"enum": [
				"before",
				"after"
			],
			"type": "string"
		},
		"business_object": {
			"ref_class": "BusinessObjectDef",
			"type": "reference"
		},
		"doc": {
			"type": "jsdoc"
		},
		"key": {
			"type": "path"
		},
		"on_create": {
			"type": "boolean"
		},
		"on_delete": {
			"type": "boolean"
		},
		"on_update": {
			"type": "boolean"
		},
		"trigger_desc": {
			"type": "string"
		}
	},
	"doc": "A DataTrigger is a mechanism that allows attaching logic to data changes of a particular class of Busness Object.  The \"action\" field is an injectable function that gets called upon create, update, and/or delete as specifed by the boolean fields.  The \"before_after\" field dictates whether the action is called before or after the Business Object is persisted to MongoDB.  If the action function returns a promise, the system waits until the promise is fulfilled, or fails if the promise is rejected.\n @property {function} action \n @property {string} before_after \n @property {reference.<BusinessObjectDef>} business_object \n @property {jsdoc} doc \n @property {path} key \n @property {boolean} on_create \n @property {boolean} on_delete \n @property {boolean} on_update \n\n @property {string} trigger_desc \n",
	"superclass": null,
	"system": true
}