{
	"__ver": "sys:6",
	"_id": "w3FIbwfYQoKk_QISUEDdKw",
	"key": "sys.dbui.bo.ScheduleTrigger",
	"language": {
		"_disp": "English",
		"_id": "-9vPfv2lEeSFtiimx_V4dw",
		"code": "en"
	},
	"system": false,
	"value": {
		"#schedule": {
			"_tooltip": {
				"day_of_month": "1-31",
				"day_of_week": "0-7 (0 or 7 is sunday)",
				"hour": "0-23",
				"minute": "0-59",
				"month": "1-12",
				"second": "0-59"
			},
			"day_of_month": "Day Of Month",
			"day_of_week": "Day Of Week",
			"hour": "Hour",
			"minute": "Minute",
			"month": "Month",
			"second": "Second"
		},
		"enabled": "Enabled",
		"function": "Function",
		"key": "Key",
		"last_execution": "Last Execution",
		"last_execution_result": "Last Execution Result",
		"last_execution_success": "Last Execution Success",
		"sched_summary": "Sched Summary",
		"schedule": "Schedule"
	}
}