{
	"__ver": "sys:14",
	"_id": "pwMVRvdjSU-2Ak0BWDA6AA",
	"doc": "API for obtaining internationalized labelgroups, by key as well as by business object class or enum",
	"name": "I18n",
	"path": "sys/api"
}