{
	"__ver": "sys:3",
	"_id": "aq6WfqQwSuCcJ92GWPqTzw",
	"doc": "Purging UpdateLogs and PackageConflicts;\nTODO: move logic for rebuilding ref tables and cleaning up attachment references",
	"name": "NoonianMaintenance",
	"path": "sys/"
}