{
	"__ver": "sys:6",
	"_id": "mNi0GIzgRHObfXWkrY_24g",
	"before_after": "after",
	"business_object": {
		"_disp": "BusinessObjectDef",
		"_id": "R1r6pCVESdma9hj8GrfMaQ"
	},
	"doc": "Generate default labelgroup",
	"key": "sys.BusinessObjectDef.Generate Label Group",
	"on_create": true,
	"on_delete": false,
	"on_update": true,
	"trigger_desc": "After save"
}