{
	"__ver": "sys:7",
	"_id": "v5tdCvf4RaykDjA1JksKlA",
	"before_after": "before",
	"business_object": {
		"_disp": "DataTrigger",
		"_id": "w1FEKYa4SbiVPVqAtEWJyw"
	},
	"doc": "Populate the \"Trigger Desc\" field for DataTriggers",
	"key": "sys.DataTrigger.Generate trigger_desc",
	"on_create": true,
	"on_delete": false,
	"on_update": true,
	"trigger_desc": "Before save"
}